(kicad_sch (version 20230121) (generator eeschema)

  (uuid 3937f468-0b83-469a-a5fd-476bbbe0394c)

  (paper "A4")

  (lib_symbols
    (symbol "Diode:1N4148" (pin_numbers hide) (pin_names hide) (in_bom yes) (on_board yes)
      (property "Reference" "D" (at 0 2.54 0)
        (effects (font (size 1.27 1.27)))
      )
      (property "Value" "1N4148" (at 0 -2.54 0)
        (effects (font (size 1.27 1.27)))
      )
      (property "Footprint" "Diode_THT:D_DO-35_SOD27_P7.62mm_Horizontal" (at 0 0 0)
        (effects (font (size 1.27 1.27)) hide)
      )
      (property "Datasheet" "https://assets.nexperia.com/documents/data-sheet/1N4148_1N4448.pdf" (at 0 0 0)
        (effects (font (size 1.27 1.27)) hide)
      )
      (property "Sim.Device" "D" (at 0 0 0)
        (effects (font (size 1.27 1.27)) hide)
      )
      (property "Sim.Pins" "1=K 2=A" (at 0 0 0)
        (effects (font (size 1.27 1.27)) hide)
      )
      (property "ki_keywords" "diode" (at 0 0 0)
        (effects (font (size 1.27 1.27)) hide)
      )
      (property "ki_description" "100V 0.15A standard switching diode, DO-35" (at 0 0 0)
        (effects (font (size 1.27 1.27)) hide)
      )
      (property "ki_fp_filters" "D*DO?35*" (at 0 0 0)
        (effects (font (size 1.27 1.27)) hide)
      )
      (symbol "1N4148_0_1"
        (polyline
          (pts
            (xy -1.27 1.27)
            (xy -1.27 -1.27)
          )
          (stroke (width 0.254) (type default))
          (fill (type none))
        )
        (polyline
          (pts
            (xy 1.27 0)
            (xy -1.27 0)
          )
          (stroke (width 0) (type default))
          (fill (type none))
        )
        (polyline
          (pts
            (xy 1.27 1.27)
            (xy 1.27 -1.27)
            (xy -1.27 0)
            (xy 1.27 1.27)
          )
          (stroke (width 0.254) (type default))
          (fill (type none))
        )
      )
      (symbol "1N4148_1_1"
        (pin passive line (at -3.81 0 0) (length 2.54)
          (name "K" (effects (font (size 1.27 1.27))))
          (number "1" (effects (font (size 1.27 1.27))))
        )
        (pin passive line (at 3.81 0 180) (length 2.54)
          (name "A" (effects (font (size 1.27 1.27))))
          (number "2" (effects (font (size 1.27 1.27))))
        )
      )
    )
    (symbol "RPi_Pico:RaspberryPi_Pico_SecondaryPins" (pin_names (offset 0.889)) (in_bom yes) (on_board yes)
      (property "Reference" "U" (at -19.05 38.1 0)
        (effects (font (size 1.27 1.27)) (justify left))
      )
      (property "Value" "RaspberryPi_Pico_SecondaryPins" (at 7.62 38.1 0)
        (effects (font (size 1.27 1.27)) (justify left))
      )
      (property "Footprint" "Module_RaspberryPi_Pico:RaspberryPi_Pico_Original_SMD" (at 0 -49.53 0)
        (effects (font (size 1.27 1.27)) hide)
      )
      (property "Datasheet" "https://datasheets.raspberrypi.com/pico/pico-datasheet.pdf" (at 0 -52.07 0)
        (effects (font (size 1.27 1.27)) hide)
      )
      (property "ki_keywords" "Raspberry Pi Pico microcontroller module RP2040 M0+ usb" (at 0 0 0)
        (effects (font (size 1.27 1.27)) hide)
      )
      (property "ki_description" "Versatile and inexpensive microcontroller module (with full pinout for test point and debug connections) powered by RP2040 dual-core Arm Cortex-M0+ processor up to 133 MHz, 264kB SRAM, 2MB QSPI flash" (at 0 0 0)
        (effects (font (size 1.27 1.27)) hide)
      )
      (property "ki_fp_filters" "RaspberryPi_Pico_Original_SMD*" (at 0 0 0)
        (effects (font (size 1.27 1.27)) hide)
      )
      (symbol "RaspberryPi_Pico_SecondaryPins_0_1"
        (rectangle (start -19.05 36.83) (end 19.05 -34.29)
          (stroke (width 0.254) (type default))
          (fill (type background))
        )
        (polyline
          (pts
            (xy 0 36.83)
            (xy 1.27 36.195)
            (xy 1.27 34.29)
            (xy 1.905 34.29)
          )
          (stroke (width 0) (type default))
          (fill (type none))
        )
        (polyline
          (pts
            (xy 1.905 34.29)
            (xy 3.175 35.56)
            (xy 3.175 33.02)
            (xy 1.905 34.29)
          )
          (stroke (width 0) (type default))
          (fill (type none))
        )
        (polyline
          (pts
            (xy 5.08 36.83)
            (xy 3.81 36.195)
            (xy 3.81 34.29)
            (xy 3.175 34.29)
          )
          (stroke (width 0) (type default))
          (fill (type none))
        )
        (polyline
          (pts
            (xy 1.651 35.306)
            (xy 1.651 35.56)
            (xy 1.905 35.56)
            (xy 1.905 33.02)
            (xy 2.159 33.02)
            (xy 2.159 33.274)
          )
          (stroke (width 0) (type default))
          (fill (type none))
        )
      )
      (symbol "RaspberryPi_Pico_SecondaryPins_1_1"
        (pin bidirectional line (at -22.86 22.86 0) (length 3.81)
          (name "GPIO0" (effects (font (size 1.27 1.27))))
          (number "1" (effects (font (size 1.27 1.27))))
          (alternate "I2C0_SDA" bidirectional line)
          (alternate "PWM0_A" output line)
          (alternate "SPI0_RX" input line)
          (alternate "UART0_TX" output line)
          (alternate "USB_OVCUR_DET" input line)
        )
        (pin bidirectional line (at -22.86 5.08 0) (length 3.81)
          (name "GPIO7" (effects (font (size 1.27 1.27))))
          (number "10" (effects (font (size 1.27 1.27))))
          (alternate "I2C1_SCL" bidirectional clock)
          (alternate "PWM3_B" bidirectional line)
          (alternate "SPI0_TX" output line)
          (alternate "UART1_RTS" output line)
          (alternate "USB_VBUS_DET" input line)
        )
        (pin bidirectional line (at -22.86 2.54 0) (length 3.81)
          (name "GPIO8" (effects (font (size 1.27 1.27))))
          (number "11" (effects (font (size 1.27 1.27))))
          (alternate "I2C0_SDA" bidirectional line)
          (alternate "PWM4_A" output line)
          (alternate "SPI1_RX" input line)
          (alternate "UART1_TX" output line)
          (alternate "USB_VBUS_EN" output line)
        )
        (pin bidirectional line (at -22.86 0 0) (length 3.81)
          (name "GPIO9" (effects (font (size 1.27 1.27))))
          (number "12" (effects (font (size 1.27 1.27))))
          (alternate "I2C0_SCL" bidirectional clock)
          (alternate "PWM4_B" bidirectional line)
          (alternate "UART1_RX" input line)
          (alternate "USB_OVCUR_DET" input line)
          (alternate "~{SPI1_CSn}" bidirectional line)
        )
        (pin power_out line (at 0 -38.1 90) (length 3.81)
          (name "GND" (effects (font (size 1.27 1.27))))
          (number "13" (effects (font (size 1.27 1.27))))
          (alternate "GND_IN" power_in line)
        )
        (pin bidirectional line (at -22.86 -2.54 0) (length 3.81)
          (name "GPIO10" (effects (font (size 1.27 1.27))))
          (number "14" (effects (font (size 1.27 1.27))))
          (alternate "I2C1_SDA" bidirectional line)
          (alternate "PWM5_A" output line)
          (alternate "SPI1_SCK" bidirectional clock)
          (alternate "UART1_CTS" input line)
          (alternate "USB_VBUS_DET" input line)
        )
        (pin bidirectional line (at -22.86 -5.08 0) (length 3.81)
          (name "GPIO11" (effects (font (size 1.27 1.27))))
          (number "15" (effects (font (size 1.27 1.27))))
          (alternate "I2C1_SCL" bidirectional clock)
          (alternate "PWM5_B" bidirectional line)
          (alternate "SPI1_TX" output line)
          (alternate "UART1_RTS" output line)
          (alternate "USB_VBUS_EN" output line)
        )
        (pin bidirectional line (at -22.86 -7.62 0) (length 3.81)
          (name "GPIO12" (effects (font (size 1.27 1.27))))
          (number "16" (effects (font (size 1.27 1.27))))
          (alternate "I2C0_SDA" bidirectional line)
          (alternate "PWM6_A" output line)
          (alternate "SPI1_RX" input line)
          (alternate "UART0_TX" output line)
          (alternate "USB_OVCUR_DET" input line)
        )
        (pin bidirectional line (at -22.86 -10.16 0) (length 3.81)
          (name "GPIO13" (effects (font (size 1.27 1.27))))
          (number "17" (effects (font (size 1.27 1.27))))
          (alternate "I2C0_SCL" bidirectional clock)
          (alternate "PWM6_B" bidirectional line)
          (alternate "UART0_RX" input line)
          (alternate "USB_VBUS_DET" input line)
          (alternate "~{SPI1_CSn}" bidirectional line)
        )
        (pin passive line (at 0 -38.1 90) (length 3.81) hide
          (name "GND" (effects (font (size 1.27 1.27))))
          (number "18" (effects (font (size 1.27 1.27))))
        )
        (pin bidirectional line (at -22.86 -12.7 0) (length 3.81)
          (name "GPIO14" (effects (font (size 1.27 1.27))))
          (number "19" (effects (font (size 1.27 1.27))))
          (alternate "I2C1_SDA" bidirectional line)
          (alternate "PWM7_A" output line)
          (alternate "SPI1_SCK" bidirectional clock)
          (alternate "UART0_CTS" input line)
          (alternate "USB_VBUS_EN" output line)
        )
        (pin bidirectional line (at -22.86 20.32 0) (length 3.81)
          (name "GPIO1" (effects (font (size 1.27 1.27))))
          (number "2" (effects (font (size 1.27 1.27))))
          (alternate "I2C0_SCL" bidirectional clock)
          (alternate "PWM0_B" bidirectional line)
          (alternate "UART0_RX" input line)
          (alternate "USB_VBUS_DET" passive line)
          (alternate "~{SPI0_CSn}" bidirectional line)
        )
        (pin bidirectional line (at -22.86 -15.24 0) (length 3.81)
          (name "GPIO15" (effects (font (size 1.27 1.27))))
          (number "20" (effects (font (size 1.27 1.27))))
          (alternate "I2C1_SCL" bidirectional clock)
          (alternate "PWM7_B" bidirectional line)
          (alternate "SPI1_TX" output line)
          (alternate "UART0_RTS" output line)
          (alternate "USB_OVCUR_DET" input line)
        )
        (pin bidirectional line (at 22.86 15.24 180) (length 3.81)
          (name "GPIO16" (effects (font (size 1.27 1.27))))
          (number "21" (effects (font (size 1.27 1.27))))
          (alternate "I2C0_SDA" bidirectional line)
          (alternate "PWM0_A" output line)
          (alternate "SPI0_RX" input line)
          (alternate "UART0_TX" output line)
          (alternate "USB_VBUS_DET" input line)
        )
        (pin bidirectional line (at 22.86 12.7 180) (length 3.81)
          (name "GPIO17" (effects (font (size 1.27 1.27))))
          (number "22" (effects (font (size 1.27 1.27))))
          (alternate "I2C0_SCL" bidirectional clock)
          (alternate "PWM0_B" bidirectional line)
          (alternate "UART0_RX" input line)
          (alternate "USB_VBUS_EN" output line)
          (alternate "~{SPI0_CSn}" bidirectional line)
        )
        (pin passive line (at 0 -38.1 90) (length 3.81) hide
          (name "GND" (effects (font (size 1.27 1.27))))
          (number "23" (effects (font (size 1.27 1.27))))
        )
        (pin bidirectional line (at 22.86 10.16 180) (length 3.81)
          (name "GPIO18" (effects (font (size 1.27 1.27))))
          (number "24" (effects (font (size 1.27 1.27))))
          (alternate "I2C1_SDA" bidirectional line)
          (alternate "PWM1_A" output line)
          (alternate "SPI0_SCK" bidirectional clock)
          (alternate "UART0_CTS" input line)
          (alternate "USB_OVCUR_DET" input line)
        )
        (pin bidirectional line (at 22.86 7.62 180) (length 3.81)
          (name "GPIO19" (effects (font (size 1.27 1.27))))
          (number "25" (effects (font (size 1.27 1.27))))
          (alternate "I2C1_SCL" bidirectional clock)
          (alternate "PWM1_B" bidirectional line)
          (alternate "SPI0_TX" output line)
          (alternate "UART0_RTS" output line)
          (alternate "USB_VBUS_DET" input line)
        )
        (pin bidirectional line (at 22.86 5.08 180) (length 3.81)
          (name "GPIO20" (effects (font (size 1.27 1.27))))
          (number "26" (effects (font (size 1.27 1.27))))
          (alternate "CLOCK_GPIN0" input clock)
          (alternate "I2C0_SDA" bidirectional line)
          (alternate "PWM2_A" output line)
          (alternate "SPI0_RX" input line)
          (alternate "UART1_TX" output line)
          (alternate "USB_VBUS_EN" output line)
        )
        (pin bidirectional line (at 22.86 2.54 180) (length 3.81)
          (name "GPIO21" (effects (font (size 1.27 1.27))))
          (number "27" (effects (font (size 1.27 1.27))))
          (alternate "CLOCK_GPOUT0" output clock)
          (alternate "I2C0_SCL" bidirectional clock)
          (alternate "PWM2_B" bidirectional line)
          (alternate "UART1_RX" input line)
          (alternate "USB_OVCUR_DET" input line)
          (alternate "~{SPI0_CSn}" bidirectional line)
        )
        (pin passive line (at 0 -38.1 90) (length 3.81) hide
          (name "GND" (effects (font (size 1.27 1.27))))
          (number "28" (effects (font (size 1.27 1.27))))
        )
        (pin bidirectional line (at 22.86 0 180) (length 3.81)
          (name "GPIO22" (effects (font (size 1.27 1.27))))
          (number "29" (effects (font (size 1.27 1.27))))
          (alternate "CLOCK_GPIN1" input clock)
          (alternate "I2C1_SDA" bidirectional line)
          (alternate "PWM3_A" output line)
          (alternate "SPI0_SCK" bidirectional clock)
          (alternate "UART1_CTS" input line)
          (alternate "USB_VBUS_DET" input line)
        )
        (pin passive line (at 0 -38.1 90) (length 3.81) hide
          (name "GND" (effects (font (size 1.27 1.27))))
          (number "3" (effects (font (size 1.27 1.27))))
        )
        (pin input line (at -22.86 -20.32 0) (length 3.81)
          (name "RUN" (effects (font (size 1.27 1.27))))
          (number "30" (effects (font (size 1.27 1.27))))
          (alternate "~{RESET}" input line)
        )
        (pin bidirectional line (at 22.86 -10.16 180) (length 3.81)
          (name "GPIO26_ADC0" (effects (font (size 1.27 1.27))))
          (number "31" (effects (font (size 1.27 1.27))))
          (alternate "ADC0" input line)
          (alternate "GPIO26" bidirectional line)
          (alternate "I2C1_SDA" bidirectional line)
          (alternate "PWM5_A" output line)
          (alternate "SPI1_SCK" bidirectional clock)
          (alternate "UART1_CTS" input line)
          (alternate "USB_VBUS_EN" output line)
        )
        (pin bidirectional line (at 22.86 -12.7 180) (length 3.81)
          (name "GPIO27_ADC1" (effects (font (size 1.27 1.27))))
          (number "32" (effects (font (size 1.27 1.27))))
          (alternate "ADC1" input line)
          (alternate "GPIO27" bidirectional line)
          (alternate "I2C1_SCL" bidirectional clock)
          (alternate "PWM5_B" bidirectional line)
          (alternate "SPI1_TX" output line)
          (alternate "UART1_RTS" output line)
          (alternate "USB_OVCUR_DET" input line)
        )
        (pin power_in line (at 22.86 -20.32 180) (length 3.81)
          (name "AGND" (effects (font (size 1.27 1.27))))
          (number "33" (effects (font (size 1.27 1.27))))
          (alternate "GND" power_in line)
        )
        (pin bidirectional line (at 22.86 -15.24 180) (length 3.81)
          (name "GPIO28_ADC2" (effects (font (size 1.27 1.27))))
          (number "34" (effects (font (size 1.27 1.27))))
          (alternate "ADC2" input line)
          (alternate "GPIO28" bidirectional line)
          (alternate "I2C0_SDA" bidirectional line)
          (alternate "PWM6_A" output line)
          (alternate "SPI1_RX" input line)
          (alternate "UART0_TX" output line)
          (alternate "USB_VBUS_DET" input line)
        )
        (pin power_in line (at 22.86 -5.08 180) (length 3.81)
          (name "ADC_VREF" (effects (font (size 1.27 1.27))))
          (number "35" (effects (font (size 1.27 1.27))))
        )
        (pin power_out line (at -5.08 40.64 270) (length 3.81)
          (name "3V3" (effects (font (size 1.27 1.27))))
          (number "36" (effects (font (size 1.27 1.27))))
        )
        (pin input line (at -22.86 -22.86 0) (length 3.81)
          (name "3V3_EN" (effects (font (size 1.27 1.27))))
          (number "37" (effects (font (size 1.27 1.27))))
          (alternate "~{3V3_DISABLE}" input line)
        )
        (pin passive line (at 0 -38.1 90) (length 3.81) hide
          (name "GND" (effects (font (size 1.27 1.27))))
          (number "38" (effects (font (size 1.27 1.27))))
        )
        (pin power_in line (at 0 40.64 270) (length 3.81)
          (name "VSYS" (effects (font (size 1.27 1.27))))
          (number "39" (effects (font (size 1.27 1.27))))
          (alternate "VSYS_OUT" power_out line)
        )
        (pin bidirectional line (at -22.86 17.78 0) (length 3.81)
          (name "GPIO2" (effects (font (size 1.27 1.27))))
          (number "4" (effects (font (size 1.27 1.27))))
          (alternate "I2C1_SDA" bidirectional line)
          (alternate "PWM1_A" output line)
          (alternate "SPI0_SCK" bidirectional clock)
          (alternate "UART0_CTS" input line)
          (alternate "USB_VBUS_DET" input line)
        )
        (pin power_out line (at 5.08 40.64 270) (length 3.81)
          (name "VBUS" (effects (font (size 1.27 1.27))))
          (number "40" (effects (font (size 1.27 1.27))))
          (alternate "VBUS_HOST" power_in line)
        )
        (pin bidirectional line (at -22.86 15.24 0) (length 3.81)
          (name "GPIO3" (effects (font (size 1.27 1.27))))
          (number "5" (effects (font (size 1.27 1.27))))
          (alternate "I2C1_SCL" bidirectional clock)
          (alternate "PWM1_B" bidirectional line)
          (alternate "SPI0_TX" output line)
          (alternate "UART0_RTS" output line)
          (alternate "USB_OVCUR_DET" input line)
        )
        (pin bidirectional line (at -22.86 12.7 0) (length 3.81)
          (name "GPIO4" (effects (font (size 1.27 1.27))))
          (number "6" (effects (font (size 1.27 1.27))))
          (alternate "I2C0_SDA" bidirectional line)
          (alternate "PWM2_A" output line)
          (alternate "SPI0_RX" input line)
          (alternate "UART1_TX" output line)
          (alternate "USB_VBUS_DET" input line)
        )
        (pin bidirectional line (at -22.86 10.16 0) (length 3.81)
          (name "GPIO5" (effects (font (size 1.27 1.27))))
          (number "7" (effects (font (size 1.27 1.27))))
          (alternate "I2C0_SCL" bidirectional clock)
          (alternate "PWM2_B" bidirectional line)
          (alternate "UART1_RX" input line)
          (alternate "USB_VBUS_EN" output line)
          (alternate "~{SPI0_CSn}" bidirectional line)
        )
        (pin passive line (at 0 -38.1 90) (length 3.81) hide
          (name "GND" (effects (font (size 1.27 1.27))))
          (number "8" (effects (font (size 1.27 1.27))))
        )
        (pin bidirectional line (at -22.86 7.62 0) (length 3.81)
          (name "GPIO6" (effects (font (size 1.27 1.27))))
          (number "9" (effects (font (size 1.27 1.27))))
          (alternate "I2C1_SDA" bidirectional line)
          (alternate "PWM3_A" output line)
          (alternate "SPI0_SCK" bidirectional clock)
          (alternate "UART1_CTS" input line)
          (alternate "USB_OVCUR_DET" input line)
        )
        (pin input clock (at -22.86 30.48 0) (length 3.81)
          (name "SWCLK" (effects (font (size 1.27 1.27))))
          (number "D1" (effects (font (size 1.27 1.27))))
        )
        (pin passive line (at 0 -38.1 90) (length 3.81) hide
          (name "GND" (effects (font (size 1.27 1.27))))
          (number "D2" (effects (font (size 1.27 1.27))))
        )
        (pin bidirectional line (at -22.86 27.94 0) (length 3.81)
          (name "SWDIO" (effects (font (size 1.27 1.27))))
          (number "D3" (effects (font (size 1.27 1.27))))
        )
        (pin power_out line (at 22.86 25.4 180) (length 3.81)
          (name "USB_GND" (effects (font (size 1.27 1.27))))
          (number "TP1" (effects (font (size 1.27 1.27))))
          (alternate "USB_HOST_GND" power_in line)
        )
        (pin bidirectional line (at 22.86 27.94 180) (length 3.81)
          (name "USB_DM" (effects (font (size 1.27 1.27))))
          (number "TP2" (effects (font (size 1.27 1.27))))
        )
        (pin bidirectional line (at 22.86 30.48 180) (length 3.81)
          (name "USB_DP" (effects (font (size 1.27 1.27))))
          (number "TP3" (effects (font (size 1.27 1.27))))
        )
        (pin no_connect line (at 22.86 -27.94 180) (length 3.81)
          (name "~{SMPS_PS}" (effects (font (size 1.27 1.27))))
          (number "TP4" (effects (font (size 1.27 1.27))))
          (alternate "GPIO23_UNSAFE" output line)
          (alternate "~{SMPS_PS_UNSAFE}" output line)
        )
        (pin output line (at 22.86 20.32 180) (length 3.81)
          (name "LED_OUT" (effects (font (size 1.27 1.27))))
          (number "TP5" (effects (font (size 1.27 1.27))))
        )
        (pin input line (at -22.86 -27.94 0) (length 3.81)
          (name "~{BOOTSEL}" (effects (font (size 1.27 1.27))))
          (number "TP6" (effects (font (size 1.27 1.27))))
        )
      )
    )
    (symbol "Switch:SW_Push" (pin_numbers hide) (pin_names (offset 1.016) hide) (in_bom yes) (on_board yes)
      (property "Reference" "SW" (at 1.27 2.54 0)
        (effects (font (size 1.27 1.27)) (justify left))
      )
      (property "Value" "SW_Push" (at 0 -1.524 0)
        (effects (font (size 1.27 1.27)))
      )
      (property "Footprint" "" (at 0 5.08 0)
        (effects (font (size 1.27 1.27)) hide)
      )
      (property "Datasheet" "~" (at 0 5.08 0)
        (effects (font (size 1.27 1.27)) hide)
      )
      (property "ki_keywords" "switch normally-open pushbutton push-button" (at 0 0 0)
        (effects (font (size 1.27 1.27)) hide)
      )
      (property "ki_description" "Push button switch, generic, two pins" (at 0 0 0)
        (effects (font (size 1.27 1.27)) hide)
      )
      (symbol "SW_Push_0_1"
        (circle (center -2.032 0) (radius 0.508)
          (stroke (width 0) (type default))
          (fill (type none))
        )
        (polyline
          (pts
            (xy 0 1.27)
            (xy 0 3.048)
          )
          (stroke (width 0) (type default))
          (fill (type none))
        )
        (polyline
          (pts
            (xy 2.54 1.27)
            (xy -2.54 1.27)
          )
          (stroke (width 0) (type default))
          (fill (type none))
        )
        (circle (center 2.032 0) (radius 0.508)
          (stroke (width 0) (type default))
          (fill (type none))
        )
        (pin passive line (at -5.08 0 0) (length 2.54)
          (name "1" (effects (font (size 1.27 1.27))))
          (number "1" (effects (font (size 1.27 1.27))))
        )
        (pin passive line (at 5.08 0 180) (length 2.54)
          (name "2" (effects (font (size 1.27 1.27))))
          (number "2" (effects (font (size 1.27 1.27))))
        )
      )
    )
  )

  (junction (at 243.84 134.62) (diameter 0) (color 0 0 0 0)
    (uuid 06a7afdd-fbd9-43af-8d89-91ff02029561)
  )
  (junction (at 185.42 138.43) (diameter 0) (color 0 0 0 0)
    (uuid 10fc98c5-349b-4fec-be19-b039b1518b20)
  )
  (junction (at 175.26 134.62) (diameter 0) (color 0 0 0 0)
    (uuid 2dd64865-e57a-4149-a9da-1c7c46b6b94a)
  )
  (junction (at 231.14 105.41) (diameter 0) (color 0 0 0 0)
    (uuid 388b167a-109a-46c0-b9bf-8d1eb37bea18)
  )
  (junction (at 243.84 118.11) (diameter 0) (color 0 0 0 0)
    (uuid 4dfc4389-d838-4b64-91ff-3b268bf7a2f9)
  )
  (junction (at 231.14 138.43) (diameter 0) (color 0 0 0 0)
    (uuid 5dc78ff9-72bd-43f9-af27-200ba4e8682f)
  )
  (junction (at 208.28 138.43) (diameter 0) (color 0 0 0 0)
    (uuid 67b1b4c2-72fd-4ea9-b837-349ac68ed6a0)
  )
  (junction (at 231.14 121.92) (diameter 0) (color 0 0 0 0)
    (uuid 7fade5de-5659-4061-bc22-d86ec86b4f3c)
  )
  (junction (at 185.42 105.41) (diameter 0) (color 0 0 0 0)
    (uuid 8b7cc8d7-934e-4f2b-8937-7d01bc892efc)
  )
  (junction (at 220.98 134.62) (diameter 0) (color 0 0 0 0)
    (uuid 8eb86963-9b9c-4ced-b22c-2ab7cca15a08)
  )
  (junction (at 208.28 105.41) (diameter 0) (color 0 0 0 0)
    (uuid a061b230-ce98-43b7-a8e6-51f1851d83bf)
  )
  (junction (at 220.98 118.11) (diameter 0) (color 0 0 0 0)
    (uuid a253788b-91bd-4d22-afc9-1945fc35afa1)
  )
  (junction (at 185.42 121.92) (diameter 0) (color 0 0 0 0)
    (uuid a9ff26b0-0489-446c-99a8-99b422789365)
  )
  (junction (at 175.26 118.11) (diameter 0) (color 0 0 0 0)
    (uuid af674bd2-490f-4125-8a67-4741c0903051)
  )
  (junction (at 198.12 134.62) (diameter 0) (color 0 0 0 0)
    (uuid bbc5eb8b-b6b6-4a85-8b09-8017e5e6240a)
  )
  (junction (at 198.12 118.11) (diameter 0) (color 0 0 0 0)
    (uuid bebcf007-f3e0-4722-b7c3-1b59bd7f9aab)
  )
  (junction (at 208.28 121.92) (diameter 0) (color 0 0 0 0)
    (uuid d6e3a4e9-0af8-4640-ac37-62af263f21d9)
  )

  (wire (pts (xy 25.4 78.74) (xy 39.37 78.74))
    (stroke (width 0) (type default))
    (uuid 0050c599-d5dd-4704-9150-2d2dfe0a5415)
  )
  (wire (pts (xy 254 116.84) (xy 254 118.11))
    (stroke (width 0) (type default))
    (uuid 00686f69-fc1c-41e9-b4cc-8da80e9c589d)
  )
  (wire (pts (xy 208.28 138.43) (xy 208.28 139.7))
    (stroke (width 0) (type default))
    (uuid 00b40d66-36c9-40f9-81ae-be8cab1c6b80)
  )
  (wire (pts (xy 231.14 133.35) (xy 231.14 134.62))
    (stroke (width 0) (type default))
    (uuid 05a62025-68e1-4395-9b28-41070c4c63b0)
  )
  (wire (pts (xy 198.12 134.62) (xy 199.39 134.62))
    (stroke (width 0) (type default))
    (uuid 07e3b189-bd72-4156-b6bb-51193932d6f7)
  )
  (wire (pts (xy 243.84 96.52) (xy 243.84 118.11))
    (stroke (width 0) (type default))
    (uuid 10898066-4e0c-4407-971b-505d5f8229af)
  )
  (wire (pts (xy 165.1 105.41) (xy 185.42 105.41))
    (stroke (width 0) (type default))
    (uuid 12732517-70ea-4457-b1eb-5d6b9392216f)
  )
  (wire (pts (xy 25.4 73.66) (xy 39.37 73.66))
    (stroke (width 0) (type default))
    (uuid 1f21c10c-693c-4817-bafd-f0a6d652708b)
  )
  (wire (pts (xy 254 151.13) (xy 252.73 151.13))
    (stroke (width 0) (type default))
    (uuid 216a1455-48b8-4835-a914-7bc575e28196)
  )
  (wire (pts (xy 254 105.41) (xy 231.14 105.41))
    (stroke (width 0) (type default))
    (uuid 312c2dc5-9f5f-4a91-9d68-f287f45e6de4)
  )
  (wire (pts (xy 185.42 116.84) (xy 185.42 118.11))
    (stroke (width 0) (type default))
    (uuid 32203b94-c068-4faf-843c-2fe07affa24a)
  )
  (wire (pts (xy 231.14 134.62) (xy 229.87 134.62))
    (stroke (width 0) (type default))
    (uuid 32a2167f-d9ae-42f0-be92-59d885be0496)
  )
  (wire (pts (xy 231.14 121.92) (xy 254 121.92))
    (stroke (width 0) (type default))
    (uuid 393e9b95-ffcf-487d-93f7-af2844b99996)
  )
  (wire (pts (xy 198.12 151.13) (xy 199.39 151.13))
    (stroke (width 0) (type default))
    (uuid 39f19763-383d-4f05-9ea9-f8f70be3a01a)
  )
  (wire (pts (xy 231.14 118.11) (xy 229.87 118.11))
    (stroke (width 0) (type default))
    (uuid 3c52a50c-9adc-4fa1-8b6a-aa428f788b96)
  )
  (wire (pts (xy 25.4 63.5) (xy 39.37 63.5))
    (stroke (width 0) (type default))
    (uuid 3c5d38b1-f308-42ca-a88d-79514fbf0127)
  )
  (wire (pts (xy 62.23 106.68) (xy 62.23 114.3))
    (stroke (width 0) (type default))
    (uuid 3d2287fe-5a81-4d4c-86de-e7cdff1db52e)
  )
  (wire (pts (xy 175.26 118.11) (xy 176.53 118.11))
    (stroke (width 0) (type default))
    (uuid 425acb6b-e853-41f7-a5bd-0f5d7e018532)
  )
  (wire (pts (xy 254 134.62) (xy 252.73 134.62))
    (stroke (width 0) (type default))
    (uuid 487fe817-2909-4efe-936b-08f5b5dfd651)
  )
  (wire (pts (xy 243.84 118.11) (xy 245.11 118.11))
    (stroke (width 0) (type default))
    (uuid 4987254e-c978-4fe1-b90c-507e0d05972d)
  )
  (wire (pts (xy 254 133.35) (xy 254 134.62))
    (stroke (width 0) (type default))
    (uuid 4bac3aa7-5be9-4761-940d-9ae3b54fa5e6)
  )
  (wire (pts (xy 198.12 134.62) (xy 198.12 151.13))
    (stroke (width 0) (type default))
    (uuid 4bf2485a-df79-402c-9173-856ddb6d462e)
  )
  (wire (pts (xy 198.12 118.11) (xy 199.39 118.11))
    (stroke (width 0) (type default))
    (uuid 4c79c32b-348b-44ca-ae0d-fba679146144)
  )
  (wire (pts (xy 208.28 138.43) (xy 231.14 138.43))
    (stroke (width 0) (type default))
    (uuid 4d18b462-58d6-408d-9691-512441d9eed4)
  )
  (wire (pts (xy 175.26 134.62) (xy 176.53 134.62))
    (stroke (width 0) (type default))
    (uuid 4f71282a-3ca9-4c44-8161-1a290adfb7a7)
  )
  (wire (pts (xy 231.14 138.43) (xy 231.14 139.7))
    (stroke (width 0) (type default))
    (uuid 515b2652-7c9e-450f-9982-f4354baff248)
  )
  (wire (pts (xy 243.84 151.13) (xy 245.11 151.13))
    (stroke (width 0) (type default))
    (uuid 5b2e3038-0ad9-42d8-b90d-766553f05b4c)
  )
  (wire (pts (xy 185.42 121.92) (xy 208.28 121.92))
    (stroke (width 0) (type default))
    (uuid 61d1a9e2-46d1-4790-9b3d-b66deba65c56)
  )
  (wire (pts (xy 208.28 118.11) (xy 207.01 118.11))
    (stroke (width 0) (type default))
    (uuid 6218691a-8401-4cb6-87e3-e360349d82ab)
  )
  (wire (pts (xy 231.14 116.84) (xy 231.14 118.11))
    (stroke (width 0) (type default))
    (uuid 6685946c-6242-49c1-86ab-0dc559706802)
  )
  (wire (pts (xy 220.98 151.13) (xy 222.25 151.13))
    (stroke (width 0) (type default))
    (uuid 66951753-93c4-4919-89fd-ad2ebbdd4078)
  )
  (wire (pts (xy 185.42 134.62) (xy 184.15 134.62))
    (stroke (width 0) (type default))
    (uuid 68d4f749-a3b0-4abd-a863-c84a3701322c)
  )
  (wire (pts (xy 243.84 134.62) (xy 245.11 134.62))
    (stroke (width 0) (type default))
    (uuid 6b002e5a-c1a4-4caf-a0f5-c4e071b89542)
  )
  (wire (pts (xy 208.28 133.35) (xy 208.28 134.62))
    (stroke (width 0) (type default))
    (uuid 6b477657-0464-438f-b1c9-7aac0239517a)
  )
  (wire (pts (xy 208.28 106.68) (xy 208.28 105.41))
    (stroke (width 0) (type default))
    (uuid 6d3933b1-1ab8-4039-a003-098724282d34)
  )
  (wire (pts (xy 231.14 149.86) (xy 231.14 151.13))
    (stroke (width 0) (type default))
    (uuid 7092023d-6490-43bd-9548-f1bb0803f369)
  )
  (wire (pts (xy 25.4 66.04) (xy 39.37 66.04))
    (stroke (width 0) (type default))
    (uuid 71e1cd98-2018-408d-89df-a80c93b1042d)
  )
  (wire (pts (xy 208.28 105.41) (xy 185.42 105.41))
    (stroke (width 0) (type default))
    (uuid 782f08cb-d250-46e9-92a7-d8f89addd52f)
  )
  (wire (pts (xy 175.26 134.62) (xy 175.26 151.13))
    (stroke (width 0) (type default))
    (uuid 7b0d4794-fbd1-4ba7-a86f-44f4b986961b)
  )
  (wire (pts (xy 185.42 133.35) (xy 185.42 134.62))
    (stroke (width 0) (type default))
    (uuid 7db6e8bf-ab47-4166-b0eb-f1bf16fb257e)
  )
  (wire (pts (xy 185.42 105.41) (xy 185.42 106.68))
    (stroke (width 0) (type default))
    (uuid 7ec110f1-76dc-45d9-88bb-24568923c969)
  )
  (wire (pts (xy 254 138.43) (xy 254 139.7))
    (stroke (width 0) (type default))
    (uuid 80009540-1c2a-4900-befc-a653b97131c1)
  )
  (wire (pts (xy 231.14 138.43) (xy 254 138.43))
    (stroke (width 0) (type default))
    (uuid 8d2fce33-0310-454c-b8d8-1ce24e02a3ab)
  )
  (wire (pts (xy 25.4 76.2) (xy 39.37 76.2))
    (stroke (width 0) (type default))
    (uuid 91026df7-2021-4b03-9a5a-880252baa532)
  )
  (wire (pts (xy 185.42 138.43) (xy 185.42 139.7))
    (stroke (width 0) (type default))
    (uuid 986ca42f-a94b-4ec1-b7c2-8fcec563c122)
  )
  (wire (pts (xy 185.42 151.13) (xy 184.15 151.13))
    (stroke (width 0) (type default))
    (uuid 98b84e88-9174-48cd-9ac6-48c66acda40c)
  )
  (wire (pts (xy 165.1 121.92) (xy 185.42 121.92))
    (stroke (width 0) (type default))
    (uuid 9b54cac8-a465-41a4-b6f3-fab62f580fd1)
  )
  (wire (pts (xy 243.84 118.11) (xy 243.84 134.62))
    (stroke (width 0) (type default))
    (uuid 9f06636a-d4fc-49bc-bb90-bcaf366d4c3d)
  )
  (wire (pts (xy 208.28 116.84) (xy 208.28 118.11))
    (stroke (width 0) (type default))
    (uuid 9f657dad-2c18-4898-99ee-6ed3e387362c)
  )
  (wire (pts (xy 243.84 134.62) (xy 243.84 151.13))
    (stroke (width 0) (type default))
    (uuid 9fe016db-5eeb-4e27-b5df-e87526c9bcf4)
  )
  (wire (pts (xy 254 121.92) (xy 254 123.19))
    (stroke (width 0) (type default))
    (uuid a095a2fb-8f4a-4288-ab11-e4386fcdb920)
  )
  (wire (pts (xy 185.42 118.11) (xy 184.15 118.11))
    (stroke (width 0) (type default))
    (uuid a30659d3-078c-466d-9be3-f3a8f2d3890b)
  )
  (wire (pts (xy 220.98 134.62) (xy 222.25 134.62))
    (stroke (width 0) (type default))
    (uuid a7b5b547-5f31-4958-a8f2-d2b72bd84a56)
  )
  (wire (pts (xy 220.98 118.11) (xy 220.98 134.62))
    (stroke (width 0) (type default))
    (uuid b353afc4-06fa-4199-9e3d-1614e021cc46)
  )
  (wire (pts (xy 198.12 96.52) (xy 198.12 118.11))
    (stroke (width 0) (type default))
    (uuid b73a8aa1-dcc5-452b-9e80-99b0f00f3613)
  )
  (wire (pts (xy 231.14 151.13) (xy 229.87 151.13))
    (stroke (width 0) (type default))
    (uuid c006191b-5abd-4b4d-9679-c6508220e32f)
  )
  (wire (pts (xy 175.26 96.52) (xy 175.26 118.11))
    (stroke (width 0) (type default))
    (uuid c0fcec3f-64ba-4713-b4cf-c45b8457800a)
  )
  (wire (pts (xy 198.12 118.11) (xy 198.12 134.62))
    (stroke (width 0) (type default))
    (uuid c1f832be-1609-429b-ab91-55e2e394181e)
  )
  (wire (pts (xy 165.1 138.43) (xy 185.42 138.43))
    (stroke (width 0) (type default))
    (uuid c30ea625-9ad4-4483-a54b-d7e43ae7f5e0)
  )
  (wire (pts (xy 231.14 105.41) (xy 208.28 105.41))
    (stroke (width 0) (type default))
    (uuid c746d7c1-0e0a-425d-aa2a-7fc09b046a45)
  )
  (wire (pts (xy 185.42 121.92) (xy 185.42 123.19))
    (stroke (width 0) (type default))
    (uuid c94cb537-809b-431c-b82e-daeddee82536)
  )
  (wire (pts (xy 185.42 149.86) (xy 185.42 151.13))
    (stroke (width 0) (type default))
    (uuid d2c6f212-d15b-4c66-82ab-b24d27fd88a4)
  )
  (wire (pts (xy 254 118.11) (xy 252.73 118.11))
    (stroke (width 0) (type default))
    (uuid d2cd067c-c72f-460d-94f2-721c6bbffc19)
  )
  (wire (pts (xy 220.98 96.52) (xy 220.98 118.11))
    (stroke (width 0) (type default))
    (uuid d2f90631-69fe-4583-b9f1-44261cafb324)
  )
  (wire (pts (xy 208.28 149.86) (xy 208.28 151.13))
    (stroke (width 0) (type default))
    (uuid d5507de9-3b72-4c65-b769-41e0ca3f7bf3)
  )
  (wire (pts (xy 231.14 121.92) (xy 231.14 123.19))
    (stroke (width 0) (type default))
    (uuid d855d5e8-dfe2-4009-bca5-7e12c9c49ece)
  )
  (wire (pts (xy 208.28 134.62) (xy 207.01 134.62))
    (stroke (width 0) (type default))
    (uuid de349f30-967d-464a-8cc3-26181a8ff4bc)
  )
  (wire (pts (xy 220.98 134.62) (xy 220.98 151.13))
    (stroke (width 0) (type default))
    (uuid e00d61b4-8bd2-41b3-a7f0-cd70c6d214f4)
  )
  (wire (pts (xy 254 149.86) (xy 254 151.13))
    (stroke (width 0) (type default))
    (uuid e366858b-d852-4793-94a1-5e2e5e9a39a1)
  )
  (wire (pts (xy 175.26 118.11) (xy 175.26 134.62))
    (stroke (width 0) (type default))
    (uuid e540f049-5dd8-4600-916e-9a5d32fe51a3)
  )
  (wire (pts (xy 208.28 151.13) (xy 207.01 151.13))
    (stroke (width 0) (type default))
    (uuid e560343f-d24c-4a31-9dfe-40bad2e02212)
  )
  (wire (pts (xy 185.42 138.43) (xy 208.28 138.43))
    (stroke (width 0) (type default))
    (uuid e772d519-ed01-4e36-88c1-95b80557d4b6)
  )
  (wire (pts (xy 208.28 121.92) (xy 231.14 121.92))
    (stroke (width 0) (type default))
    (uuid e774d6b1-0126-4995-9201-87d08e00e018)
  )
  (wire (pts (xy 220.98 118.11) (xy 222.25 118.11))
    (stroke (width 0) (type default))
    (uuid e7fca7a9-3482-48e5-ade7-dfcd30f8be32)
  )
  (wire (pts (xy 25.4 60.96) (xy 39.37 60.96))
    (stroke (width 0) (type default))
    (uuid eace5b4e-bca7-45e5-8668-9b298a9e7935)
  )
  (wire (pts (xy 231.14 106.68) (xy 231.14 105.41))
    (stroke (width 0) (type default))
    (uuid ef421b8c-59dc-4d56-87ca-f48d757b17de)
  )
  (wire (pts (xy 25.4 71.12) (xy 39.37 71.12))
    (stroke (width 0) (type default))
    (uuid ef9bc476-52b2-47d3-b753-a18371ed233a)
  )
  (wire (pts (xy 254 106.68) (xy 254 105.41))
    (stroke (width 0) (type default))
    (uuid fab671c8-744c-488e-9620-39758141dde3)
  )
  (wire (pts (xy 208.28 121.92) (xy 208.28 123.19))
    (stroke (width 0) (type default))
    (uuid fb18085a-a7b8-4e71-8925-59e2266fb319)
  )
  (wire (pts (xy 175.26 151.13) (xy 176.53 151.13))
    (stroke (width 0) (type default))
    (uuid fc4d0c7a-e347-4f42-968c-c5da4dc730df)
  )

  (global_label "GND" (shape input) (at 62.23 114.3 270) (fields_autoplaced)
    (effects (font (size 1.27 1.27)) (justify right))
    (uuid 0539ec35-9707-4161-9827-4a19cb6013ba)
    (property "Intersheetrefs" "${INTERSHEET_REFS}" (at 62.23 121.1557 90)
      (effects (font (size 1.27 1.27)) (justify right) hide)
    )
  )
  (global_label "ROW_2" (shape input) (at 25.4 63.5 180) (fields_autoplaced)
    (effects (font (size 1.27 1.27)) (justify right))
    (uuid 3bcd6bc9-165c-4572-a59b-56e79e4a5f58)
    (property "Intersheetrefs" "${INTERSHEET_REFS}" (at 16.1858 63.5 0)
      (effects (font (size 1.27 1.27)) (justify right) hide)
    )
  )
  (global_label "COL_2" (shape input) (at 25.4 76.2 180) (fields_autoplaced)
    (effects (font (size 1.27 1.27)) (justify right))
    (uuid 46d5c238-54e2-4ee4-91f3-a6bb42127933)
    (property "Intersheetrefs" "${INTERSHEET_REFS}" (at 16.6091 76.2 0)
      (effects (font (size 1.27 1.27)) (justify right) hide)
    )
  )
  (global_label "COL_4" (shape input) (at 25.4 71.12 180) (fields_autoplaced)
    (effects (font (size 1.27 1.27)) (justify right))
    (uuid 48d905b4-f0dd-4152-838a-ed81d69ac61f)
    (property "Intersheetrefs" "${INTERSHEET_REFS}" (at 16.6091 71.12 0)
      (effects (font (size 1.27 1.27)) (justify right) hide)
    )
  )
  (global_label "COL_3" (shape input) (at 25.4 73.66 180) (fields_autoplaced)
    (effects (font (size 1.27 1.27)) (justify right))
    (uuid 5ce9d758-4ced-47a5-97e7-02e1448d74e9)
    (property "Intersheetrefs" "${INTERSHEET_REFS}" (at 16.6091 73.66 0)
      (effects (font (size 1.27 1.27)) (justify right) hide)
    )
  )
  (global_label "COL_3" (shape input) (at 220.98 96.52 90) (fields_autoplaced)
    (effects (font (size 1.27 1.27)) (justify left))
    (uuid 649fe57d-ce03-4ed2-aac7-f2807393cd7f)
    (property "Intersheetrefs" "${INTERSHEET_REFS}" (at 220.98 87.7291 90)
      (effects (font (size 1.27 1.27)) (justify left) hide)
    )
  )
  (global_label "ROW_2" (shape input) (at 165.1 121.92 180) (fields_autoplaced)
    (effects (font (size 1.27 1.27)) (justify right))
    (uuid 6ea6df27-2cc3-4709-af4a-d117abc5296a)
    (property "Intersheetrefs" "${INTERSHEET_REFS}" (at 155.8858 121.92 0)
      (effects (font (size 1.27 1.27)) (justify right) hide)
    )
  )
  (global_label "ROW_3" (shape input) (at 25.4 60.96 180) (fields_autoplaced)
    (effects (font (size 1.27 1.27)) (justify right))
    (uuid 703cf18c-2949-4c64-94f9-f19aae5e48e6)
    (property "Intersheetrefs" "${INTERSHEET_REFS}" (at 16.1858 60.96 0)
      (effects (font (size 1.27 1.27)) (justify right) hide)
    )
  )
  (global_label "COL_1" (shape input) (at 175.26 96.52 90) (fields_autoplaced)
    (effects (font (size 1.27 1.27)) (justify left))
    (uuid 7e592562-ab5a-48bf-9927-04ed3f21909c)
    (property "Intersheetrefs" "${INTERSHEET_REFS}" (at 175.26 87.7291 90)
      (effects (font (size 1.27 1.27)) (justify left) hide)
    )
  )
  (global_label "ROW_3" (shape input) (at 165.1 138.43 180) (fields_autoplaced)
    (effects (font (size 1.27 1.27)) (justify right))
    (uuid aad576e7-323e-4ca5-9603-afb39b8b6976)
    (property "Intersheetrefs" "${INTERSHEET_REFS}" (at 155.8858 138.43 0)
      (effects (font (size 1.27 1.27)) (justify right) hide)
    )
  )
  (global_label "ROW_1" (shape input) (at 165.1 105.41 180) (fields_autoplaced)
    (effects (font (size 1.27 1.27)) (justify right))
    (uuid b3354e88-9974-478f-a099-ed76ca858375)
    (property "Intersheetrefs" "${INTERSHEET_REFS}" (at 155.8858 105.41 0)
      (effects (font (size 1.27 1.27)) (justify right) hide)
    )
  )
  (global_label "COL_4" (shape input) (at 243.84 96.52 90) (fields_autoplaced)
    (effects (font (size 1.27 1.27)) (justify left))
    (uuid d56838b6-6b6c-4cf5-9867-4352acd02fe1)
    (property "Intersheetrefs" "${INTERSHEET_REFS}" (at 243.84 87.7291 90)
      (effects (font (size 1.27 1.27)) (justify left) hide)
    )
  )
  (global_label "ROW_1" (shape input) (at 25.4 66.04 180) (fields_autoplaced)
    (effects (font (size 1.27 1.27)) (justify right))
    (uuid de61e5bf-c736-46e2-9724-64368fe19b71)
    (property "Intersheetrefs" "${INTERSHEET_REFS}" (at 16.1858 66.04 0)
      (effects (font (size 1.27 1.27)) (justify right) hide)
    )
  )
  (global_label "COL_1" (shape input) (at 25.4 78.74 180) (fields_autoplaced)
    (effects (font (size 1.27 1.27)) (justify right))
    (uuid e5678e17-0fed-4360-8021-b6a7cda5a3ea)
    (property "Intersheetrefs" "${INTERSHEET_REFS}" (at 16.6091 78.74 0)
      (effects (font (size 1.27 1.27)) (justify right) hide)
    )
  )
  (global_label "COL_2" (shape input) (at 198.12 96.52 90) (fields_autoplaced)
    (effects (font (size 1.27 1.27)) (justify left))
    (uuid f9773ce9-d52a-4199-bfb8-a4378a043bec)
    (property "Intersheetrefs" "${INTERSHEET_REFS}" (at 198.12 87.7291 90)
      (effects (font (size 1.27 1.27)) (justify left) hide)
    )
  )

  (symbol (lib_id "Diode:1N4148") (at 226.06 134.62 0) (unit 1)
    (in_bom yes) (on_board yes) (dnp no) (fields_autoplaced)
    (uuid 013a38e8-a02d-48f8-bf79-ca4118e95ee2)
    (property "Reference" "D7" (at 226.06 128.27 0)
      (effects (font (size 1.27 1.27)))
    )
    (property "Value" "1N4148" (at 226.06 130.81 0)
      (effects (font (size 1.27 1.27)))
    )
    (property "Footprint" "Diode_THT:D_DO-35_SOD27_P7.62mm_Horizontal" (at 226.06 134.62 0)
      (effects (font (size 1.27 1.27)) hide)
    )
    (property "Datasheet" "https://assets.nexperia.com/documents/data-sheet/1N4148_1N4448.pdf" (at 226.06 134.62 0)
      (effects (font (size 1.27 1.27)) hide)
    )
    (property "Sim.Device" "D" (at 226.06 134.62 0)
      (effects (font (size 1.27 1.27)) hide)
    )
    (property "Sim.Pins" "1=K 2=A" (at 226.06 134.62 0)
      (effects (font (size 1.27 1.27)) hide)
    )
    (pin "1" (uuid dc5b2717-27a9-4d1a-86ec-f7bb56585ce7))
    (pin "2" (uuid 5beef05f-a5e0-499e-9215-1b4db728380b))
    (instances
      (project "Macro keyboard"
        (path "/3937f468-0b83-469a-a5fd-476bbbe0394c"
          (reference "D7") (unit 1)
        )
      )
    )
  )

  (symbol (lib_id "Switch:SW_Push") (at 254 144.78 270) (unit 1)
    (in_bom yes) (on_board yes) (dnp no) (fields_autoplaced)
    (uuid 05208b37-43ae-4e6e-9908-6e44f52e1d7a)
    (property "Reference" "SW12" (at 257.81 143.51 90)
      (effects (font (size 1.27 1.27)) (justify left))
    )
    (property "Value" "SW_Push" (at 257.81 146.05 90)
      (effects (font (size 1.27 1.27)) (justify left))
    )
    (property "Footprint" "Button_Switch_Keyboard:SW_Cherry_MX_1.00u_Plate" (at 259.08 144.78 0)
      (effects (font (size 1.27 1.27)) hide)
    )
    (property "Datasheet" "~" (at 259.08 144.78 0)
      (effects (font (size 1.27 1.27)) hide)
    )
    (pin "2" (uuid c1b399b2-c284-43ca-a07e-4d86a9c77c7a))
    (pin "1" (uuid b8abcf8c-4042-4381-82a6-5ebe993f6032))
    (instances
      (project "Macro keyboard"
        (path "/3937f468-0b83-469a-a5fd-476bbbe0394c"
          (reference "SW12") (unit 1)
        )
      )
    )
  )

  (symbol (lib_id "Switch:SW_Push") (at 185.42 144.78 270) (unit 1)
    (in_bom yes) (on_board yes) (dnp no) (fields_autoplaced)
    (uuid 103c23eb-da2f-4e84-a2bc-b7e36db058a8)
    (property "Reference" "SW9" (at 189.23 143.51 90)
      (effects (font (size 1.27 1.27)) (justify left))
    )
    (property "Value" "SW_Push" (at 189.23 146.05 90)
      (effects (font (size 1.27 1.27)) (justify left))
    )
    (property "Footprint" "Button_Switch_Keyboard:SW_Cherry_MX_1.00u_Plate" (at 190.5 144.78 0)
      (effects (font (size 1.27 1.27)) hide)
    )
    (property "Datasheet" "~" (at 190.5 144.78 0)
      (effects (font (size 1.27 1.27)) hide)
    )
    (pin "2" (uuid 557285ec-9b2e-4910-abfd-3ea1f31efe69))
    (pin "1" (uuid a0f9a95c-34e9-4ffa-8520-aa69f48aa1a8))
    (instances
      (project "Macro keyboard"
        (path "/3937f468-0b83-469a-a5fd-476bbbe0394c"
          (reference "SW9") (unit 1)
        )
      )
    )
  )

  (symbol (lib_id "Diode:1N4148") (at 203.2 118.11 0) (unit 1)
    (in_bom yes) (on_board yes) (dnp no) (fields_autoplaced)
    (uuid 2569706f-365e-418a-b1f7-a4c8f00fe876)
    (property "Reference" "D2" (at 203.2 111.76 0)
      (effects (font (size 1.27 1.27)))
    )
    (property "Value" "1N4148" (at 203.2 114.3 0)
      (effects (font (size 1.27 1.27)))
    )
    (property "Footprint" "Diode_THT:D_DO-35_SOD27_P7.62mm_Horizontal" (at 203.2 118.11 0)
      (effects (font (size 1.27 1.27)) hide)
    )
    (property "Datasheet" "https://assets.nexperia.com/documents/data-sheet/1N4148_1N4448.pdf" (at 203.2 118.11 0)
      (effects (font (size 1.27 1.27)) hide)
    )
    (property "Sim.Device" "D" (at 203.2 118.11 0)
      (effects (font (size 1.27 1.27)) hide)
    )
    (property "Sim.Pins" "1=K 2=A" (at 203.2 118.11 0)
      (effects (font (size 1.27 1.27)) hide)
    )
    (pin "1" (uuid adcec570-afc2-47cc-99d6-9ba282fc4dc9))
    (pin "2" (uuid 0e7baf4b-59af-4041-b9b4-cf89726a7955))
    (instances
      (project "Macro keyboard"
        (path "/3937f468-0b83-469a-a5fd-476bbbe0394c"
          (reference "D2") (unit 1)
        )
      )
    )
  )

  (symbol (lib_id "Switch:SW_Push") (at 208.28 144.78 270) (unit 1)
    (in_bom yes) (on_board yes) (dnp no) (fields_autoplaced)
    (uuid 276d73bf-a6af-4fba-ba0f-fb2293d33288)
    (property "Reference" "SW10" (at 212.09 143.51 90)
      (effects (font (size 1.27 1.27)) (justify left))
    )
    (property "Value" "SW_Push" (at 212.09 146.05 90)
      (effects (font (size 1.27 1.27)) (justify left))
    )
    (property "Footprint" "Button_Switch_Keyboard:SW_Cherry_MX_1.00u_Plate" (at 213.36 144.78 0)
      (effects (font (size 1.27 1.27)) hide)
    )
    (property "Datasheet" "~" (at 213.36 144.78 0)
      (effects (font (size 1.27 1.27)) hide)
    )
    (pin "2" (uuid b8adfbae-489d-45f1-9913-78e8ff4b4a3b))
    (pin "1" (uuid 2c798d1f-3eff-4db4-844f-09b4bedd50cb))
    (instances
      (project "Macro keyboard"
        (path "/3937f468-0b83-469a-a5fd-476bbbe0394c"
          (reference "SW10") (unit 1)
        )
      )
    )
  )

  (symbol (lib_id "Diode:1N4148") (at 248.92 134.62 0) (unit 1)
    (in_bom yes) (on_board yes) (dnp no) (fields_autoplaced)
    (uuid 27e9c140-bdf6-4791-a07b-67dad34a94bd)
    (property "Reference" "D8" (at 248.92 128.27 0)
      (effects (font (size 1.27 1.27)))
    )
    (property "Value" "1N4148" (at 248.92 130.81 0)
      (effects (font (size 1.27 1.27)))
    )
    (property "Footprint" "Diode_THT:D_DO-35_SOD27_P7.62mm_Horizontal" (at 248.92 134.62 0)
      (effects (font (size 1.27 1.27)) hide)
    )
    (property "Datasheet" "https://assets.nexperia.com/documents/data-sheet/1N4148_1N4448.pdf" (at 248.92 134.62 0)
      (effects (font (size 1.27 1.27)) hide)
    )
    (property "Sim.Device" "D" (at 248.92 134.62 0)
      (effects (font (size 1.27 1.27)) hide)
    )
    (property "Sim.Pins" "1=K 2=A" (at 248.92 134.62 0)
      (effects (font (size 1.27 1.27)) hide)
    )
    (pin "1" (uuid f56e8c2b-3a9d-4fe1-95e5-7b26cc60ecee))
    (pin "2" (uuid 4b25140d-4090-4bf0-9dcd-bc1ef83d7bba))
    (instances
      (project "Macro keyboard"
        (path "/3937f468-0b83-469a-a5fd-476bbbe0394c"
          (reference "D8") (unit 1)
        )
      )
    )
  )

  (symbol (lib_id "Switch:SW_Push") (at 254 128.27 270) (unit 1)
    (in_bom yes) (on_board yes) (dnp no) (fields_autoplaced)
    (uuid 3214f2f0-56d9-4eb8-84e8-7556c3db893e)
    (property "Reference" "SW8" (at 257.81 127 90)
      (effects (font (size 1.27 1.27)) (justify left))
    )
    (property "Value" "SW_Push" (at 257.81 129.54 90)
      (effects (font (size 1.27 1.27)) (justify left))
    )
    (property "Footprint" "Button_Switch_Keyboard:SW_Cherry_MX_1.00u_Plate" (at 259.08 128.27 0)
      (effects (font (size 1.27 1.27)) hide)
    )
    (property "Datasheet" "~" (at 259.08 128.27 0)
      (effects (font (size 1.27 1.27)) hide)
    )
    (pin "2" (uuid 9f7b34d3-0591-4f7d-bc4b-fe785a15c68b))
    (pin "1" (uuid 736185b1-c896-4ead-97a2-a56b0a813b1d))
    (instances
      (project "Macro keyboard"
        (path "/3937f468-0b83-469a-a5fd-476bbbe0394c"
          (reference "SW8") (unit 1)
        )
      )
    )
  )

  (symbol (lib_id "Switch:SW_Push") (at 231.14 111.76 270) (unit 1)
    (in_bom yes) (on_board yes) (dnp no) (fields_autoplaced)
    (uuid 41ebbb3a-b061-4081-8ec6-6b02430613b8)
    (property "Reference" "SW3" (at 234.95 110.49 90)
      (effects (font (size 1.27 1.27)) (justify left))
    )
    (property "Value" "SW_Push" (at 234.95 113.03 90)
      (effects (font (size 1.27 1.27)) (justify left))
    )
    (property "Footprint" "Button_Switch_Keyboard:SW_Cherry_MX_1.00u_Plate" (at 236.22 111.76 0)
      (effects (font (size 1.27 1.27)) hide)
    )
    (property "Datasheet" "~" (at 236.22 111.76 0)
      (effects (font (size 1.27 1.27)) hide)
    )
    (pin "2" (uuid 510f9a44-6a62-4daf-8c58-3d78a1ba5a7a))
    (pin "1" (uuid 59c088db-b116-47e9-97f8-4a8ce7a7d4e0))
    (instances
      (project "Macro keyboard"
        (path "/3937f468-0b83-469a-a5fd-476bbbe0394c"
          (reference "SW3") (unit 1)
        )
      )
    )
  )

  (symbol (lib_id "Diode:1N4148") (at 248.92 118.11 0) (unit 1)
    (in_bom yes) (on_board yes) (dnp no) (fields_autoplaced)
    (uuid 42225357-1acb-41be-98f4-d982186d78d5)
    (property "Reference" "D4" (at 248.92 111.76 0)
      (effects (font (size 1.27 1.27)))
    )
    (property "Value" "1N4148" (at 248.92 114.3 0)
      (effects (font (size 1.27 1.27)))
    )
    (property "Footprint" "Diode_THT:D_DO-35_SOD27_P7.62mm_Horizontal" (at 248.92 118.11 0)
      (effects (font (size 1.27 1.27)) hide)
    )
    (property "Datasheet" "https://assets.nexperia.com/documents/data-sheet/1N4148_1N4448.pdf" (at 248.92 118.11 0)
      (effects (font (size 1.27 1.27)) hide)
    )
    (property "Sim.Device" "D" (at 248.92 118.11 0)
      (effects (font (size 1.27 1.27)) hide)
    )
    (property "Sim.Pins" "1=K 2=A" (at 248.92 118.11 0)
      (effects (font (size 1.27 1.27)) hide)
    )
    (pin "1" (uuid 93affc84-a4ea-4547-ac41-11564dc5d91c))
    (pin "2" (uuid 60bd5d32-c0c6-4829-b2ab-a0ee8772975d))
    (instances
      (project "Macro keyboard"
        (path "/3937f468-0b83-469a-a5fd-476bbbe0394c"
          (reference "D4") (unit 1)
        )
      )
    )
  )

  (symbol (lib_id "Switch:SW_Push") (at 208.28 111.76 270) (unit 1)
    (in_bom yes) (on_board yes) (dnp no) (fields_autoplaced)
    (uuid 48e2568d-134d-4cb1-96e4-5c40fb2937bf)
    (property "Reference" "SW2" (at 212.09 110.49 90)
      (effects (font (size 1.27 1.27)) (justify left))
    )
    (property "Value" "SW_Push" (at 212.09 113.03 90)
      (effects (font (size 1.27 1.27)) (justify left))
    )
    (property "Footprint" "Button_Switch_Keyboard:SW_Cherry_MX_1.00u_Plate" (at 213.36 111.76 0)
      (effects (font (size 1.27 1.27)) hide)
    )
    (property "Datasheet" "~" (at 213.36 111.76 0)
      (effects (font (size 1.27 1.27)) hide)
    )
    (pin "2" (uuid f2810240-eb1a-44f2-9d8b-bb31f757ab58))
    (pin "1" (uuid 34f69dd8-6b97-4e94-b869-ca45c3e50788))
    (instances
      (project "Macro keyboard"
        (path "/3937f468-0b83-469a-a5fd-476bbbe0394c"
          (reference "SW2") (unit 1)
        )
      )
    )
  )

  (symbol (lib_id "RPi_Pico:RaspberryPi_Pico_SecondaryPins") (at 62.23 68.58 0) (unit 1)
    (in_bom yes) (on_board yes) (dnp no) (fields_autoplaced)
    (uuid 4f4c0dfb-b531-42bf-9388-713158b3a472)
    (property "Reference" "U1" (at 64.4241 105.41 0)
      (effects (font (size 1.27 1.27)) (justify left))
    )
    (property "Value" "RaspberryPi_Pico_SecondaryPins" (at 64.4241 107.95 0)
      (effects (font (size 1.27 1.27)) (justify left))
    )
    (property "Footprint" "RPi_Pico:RaspberryPi_Pico_H_THT" (at 62.23 118.11 0)
      (effects (font (size 1.27 1.27)) hide)
    )
    (property "Datasheet" "https://datasheets.raspberrypi.com/pico/pico-datasheet.pdf" (at 62.23 120.65 0)
      (effects (font (size 1.27 1.27)) hide)
    )
    (pin "38" (uuid a21316e1-1413-4f79-8333-2ced5395dd5d))
    (pin "31" (uuid 2016fc01-f3e7-43f6-84a6-9544b4667332))
    (pin "32" (uuid f7d63ce0-0491-468c-95e6-f406c9e93ba3))
    (pin "33" (uuid 06f6703f-8a3e-4936-a2d9-e2f4296fadf4))
    (pin "36" (uuid 79ac36c3-f233-4a18-9ed2-87375ecfbc00))
    (pin "37" (uuid c8d41c28-136d-47bc-9b68-14f292bb58c5))
    (pin "4" (uuid 93fcbcb3-faeb-45b3-bce6-4c45414fd84a))
    (pin "39" (uuid 1006db5c-6148-44d1-a6ea-1683cce857f4))
    (pin "6" (uuid 512cb1de-f9e0-4b28-b71e-4a927d8ebe26))
    (pin "2" (uuid ad6b8d92-085f-4927-9390-579fa9971036))
    (pin "TP5" (uuid e3fc2601-4c21-4c74-977b-e583b5575b06))
    (pin "27" (uuid 1b9d21ca-d636-42e6-9289-e9786efd1640))
    (pin "18" (uuid 1992e5c3-d006-495b-b633-fd5472822db3))
    (pin "3" (uuid 83e33b84-3211-4af1-8550-68c1ebb55b6b))
    (pin "20" (uuid ffb63e46-35aa-40d1-a9ae-82c382b27fe7))
    (pin "24" (uuid 8f47a0d8-7562-4be5-becd-b561579fd835))
    (pin "TP4" (uuid 2b3c3d33-b4f5-40fb-807b-f133aed24d93))
    (pin "TP3" (uuid fb0538e1-5641-4bdb-8940-76dfae7ba051))
    (pin "19" (uuid 2b0fa8c1-01c2-4fbf-9325-521b7058f619))
    (pin "TP2" (uuid d7aebb6b-c82f-425a-9275-41b432ea0841))
    (pin "40" (uuid 67948ce6-c1cc-44f7-83b4-410e91ea0555))
    (pin "15" (uuid 0226f38d-d2bf-4739-9da7-04fe0369ec22))
    (pin "35" (uuid d9e6ceb5-c5a8-4682-8d3b-d222288128b7))
    (pin "D3" (uuid 5efd9a1b-5787-4d9e-935d-43f28f0e8a74))
    (pin "14" (uuid 853e373c-4497-4aba-9803-5297ca5d56ed))
    (pin "11" (uuid f55768cb-3b7c-4a3e-8902-9483f2412730))
    (pin "28" (uuid 71a58967-9f44-43bb-8fac-3aa6a188653b))
    (pin "5" (uuid b06f64aa-4152-48be-aed8-9a6afd306250))
    (pin "34" (uuid 77b92f11-e2c7-4cd0-a530-e8a1a4ddf1f0))
    (pin "30" (uuid 6780d056-c95e-4562-b6bd-e7986680d88c))
    (pin "16" (uuid f56f6c99-ec08-4a62-b40a-ab7d2ba63f1d))
    (pin "29" (uuid 2743774d-c4d5-4865-9198-c7a701719881))
    (pin "8" (uuid a782db28-4fcf-4fd3-a6af-754b4bfffcff))
    (pin "21" (uuid 89f15cb3-b206-4e15-a84e-df36e910b60f))
    (pin "25" (uuid 7196f806-1f63-49fd-8685-595cf5be6727))
    (pin "26" (uuid 50decd5f-45ff-4470-82db-f9bd94e16310))
    (pin "TP6" (uuid 83b86de3-4d7e-4750-86f4-01d713668ac2))
    (pin "D2" (uuid 54b0b7ec-9675-43ca-a80d-4af3634fb7e3))
    (pin "TP1" (uuid 75f5772f-fc30-4c83-ad19-80df9465d390))
    (pin "10" (uuid 58ffa099-3627-440d-8f7e-ac1745508c8b))
    (pin "13" (uuid 73528032-796a-4346-bc30-7d7fdf57b71f))
    (pin "D1" (uuid 7ce862cb-d87e-47bc-b7ca-48131090827a))
    (pin "1" (uuid e840121c-e45f-455e-a64b-9b5d783d9224))
    (pin "12" (uuid effc38f4-c5e8-42b2-8b79-f71730e76480))
    (pin "17" (uuid cc1044dd-1062-4d4f-8b54-9ef5b494d07b))
    (pin "9" (uuid e08ecb07-b9c5-4ad6-b2a0-33106f2415cf))
    (pin "23" (uuid 2623d750-e4f8-4859-b4fb-d0483a913d05))
    (pin "22" (uuid 70b58244-946e-4dba-b6ab-74d018148c70))
    (pin "7" (uuid 34ffb1c5-4bbb-4b4a-a3ef-1685bb762123))
    (instances
      (project "Macro keyboard"
        (path "/3937f468-0b83-469a-a5fd-476bbbe0394c"
          (reference "U1") (unit 1)
        )
      )
    )
  )

  (symbol (lib_id "Diode:1N4148") (at 203.2 134.62 0) (unit 1)
    (in_bom yes) (on_board yes) (dnp no) (fields_autoplaced)
    (uuid 5c3efd17-2748-419b-acde-1f11d5d5e5ed)
    (property "Reference" "D6" (at 203.2 128.27 0)
      (effects (font (size 1.27 1.27)))
    )
    (property "Value" "1N4148" (at 203.2 130.81 0)
      (effects (font (size 1.27 1.27)))
    )
    (property "Footprint" "Diode_THT:D_DO-35_SOD27_P7.62mm_Horizontal" (at 203.2 134.62 0)
      (effects (font (size 1.27 1.27)) hide)
    )
    (property "Datasheet" "https://assets.nexperia.com/documents/data-sheet/1N4148_1N4448.pdf" (at 203.2 134.62 0)
      (effects (font (size 1.27 1.27)) hide)
    )
    (property "Sim.Device" "D" (at 203.2 134.62 0)
      (effects (font (size 1.27 1.27)) hide)
    )
    (property "Sim.Pins" "1=K 2=A" (at 203.2 134.62 0)
      (effects (font (size 1.27 1.27)) hide)
    )
    (pin "1" (uuid 8c02681d-07e2-4bef-8a21-ea23a0ce87d1))
    (pin "2" (uuid 7aba0edb-d96d-4f5d-b93b-7a5b4e8a6e0e))
    (instances
      (project "Macro keyboard"
        (path "/3937f468-0b83-469a-a5fd-476bbbe0394c"
          (reference "D6") (unit 1)
        )
      )
    )
  )

  (symbol (lib_id "Switch:SW_Push") (at 231.14 128.27 270) (unit 1)
    (in_bom yes) (on_board yes) (dnp no) (fields_autoplaced)
    (uuid 600f5793-e4dd-4e36-a5a4-1ad2ae1fb73b)
    (property "Reference" "SW7" (at 234.95 127 90)
      (effects (font (size 1.27 1.27)) (justify left))
    )
    (property "Value" "SW_Push" (at 234.95 129.54 90)
      (effects (font (size 1.27 1.27)) (justify left))
    )
    (property "Footprint" "Button_Switch_Keyboard:SW_Cherry_MX_1.00u_Plate" (at 236.22 128.27 0)
      (effects (font (size 1.27 1.27)) hide)
    )
    (property "Datasheet" "~" (at 236.22 128.27 0)
      (effects (font (size 1.27 1.27)) hide)
    )
    (pin "2" (uuid 7fdb087c-d3d1-41af-9fc6-a4eeddee3a43))
    (pin "1" (uuid b117d56c-20a5-4781-8c69-e740fbc6afe3))
    (instances
      (project "Macro keyboard"
        (path "/3937f468-0b83-469a-a5fd-476bbbe0394c"
          (reference "SW7") (unit 1)
        )
      )
    )
  )

  (symbol (lib_id "Diode:1N4148") (at 180.34 134.62 0) (unit 1)
    (in_bom yes) (on_board yes) (dnp no) (fields_autoplaced)
    (uuid 6977ca5b-2917-4f66-91be-b232ac6316e6)
    (property "Reference" "D5" (at 180.34 128.27 0)
      (effects (font (size 1.27 1.27)))
    )
    (property "Value" "1N4148" (at 180.34 130.81 0)
      (effects (font (size 1.27 1.27)))
    )
    (property "Footprint" "Diode_THT:D_DO-35_SOD27_P7.62mm_Horizontal" (at 180.34 134.62 0)
      (effects (font (size 1.27 1.27)) hide)
    )
    (property "Datasheet" "https://assets.nexperia.com/documents/data-sheet/1N4148_1N4448.pdf" (at 180.34 134.62 0)
      (effects (font (size 1.27 1.27)) hide)
    )
    (property "Sim.Device" "D" (at 180.34 134.62 0)
      (effects (font (size 1.27 1.27)) hide)
    )
    (property "Sim.Pins" "1=K 2=A" (at 180.34 134.62 0)
      (effects (font (size 1.27 1.27)) hide)
    )
    (pin "1" (uuid b819153d-48bb-4a88-8af8-d3d60830dbbd))
    (pin "2" (uuid 6736fea6-25b8-4e98-a960-8a7994b0d8e0))
    (instances
      (project "Macro keyboard"
        (path "/3937f468-0b83-469a-a5fd-476bbbe0394c"
          (reference "D5") (unit 1)
        )
      )
    )
  )

  (symbol (lib_id "Switch:SW_Push") (at 231.14 144.78 270) (unit 1)
    (in_bom yes) (on_board yes) (dnp no) (fields_autoplaced)
    (uuid 6a98ad18-b1c8-4898-a75d-2937535b2d74)
    (property "Reference" "SW11" (at 234.95 143.51 90)
      (effects (font (size 1.27 1.27)) (justify left))
    )
    (property "Value" "SW_Push" (at 234.95 146.05 90)
      (effects (font (size 1.27 1.27)) (justify left))
    )
    (property "Footprint" "Button_Switch_Keyboard:SW_Cherry_MX_1.00u_Plate" (at 236.22 144.78 0)
      (effects (font (size 1.27 1.27)) hide)
    )
    (property "Datasheet" "~" (at 236.22 144.78 0)
      (effects (font (size 1.27 1.27)) hide)
    )
    (pin "2" (uuid 14be7d4f-0752-417c-bc61-1398cab17817))
    (pin "1" (uuid 02803c2b-194b-411c-984a-5fb5cc0837b9))
    (instances
      (project "Macro keyboard"
        (path "/3937f468-0b83-469a-a5fd-476bbbe0394c"
          (reference "SW11") (unit 1)
        )
      )
    )
  )

  (symbol (lib_id "Diode:1N4148") (at 180.34 151.13 0) (unit 1)
    (in_bom yes) (on_board yes) (dnp no) (fields_autoplaced)
    (uuid 7181cff6-f770-48e9-8744-665fb1b5b9f9)
    (property "Reference" "D9" (at 180.34 144.78 0)
      (effects (font (size 1.27 1.27)))
    )
    (property "Value" "1N4148" (at 180.34 147.32 0)
      (effects (font (size 1.27 1.27)))
    )
    (property "Footprint" "Diode_THT:D_DO-35_SOD27_P7.62mm_Horizontal" (at 180.34 151.13 0)
      (effects (font (size 1.27 1.27)) hide)
    )
    (property "Datasheet" "https://assets.nexperia.com/documents/data-sheet/1N4148_1N4448.pdf" (at 180.34 151.13 0)
      (effects (font (size 1.27 1.27)) hide)
    )
    (property "Sim.Device" "D" (at 180.34 151.13 0)
      (effects (font (size 1.27 1.27)) hide)
    )
    (property "Sim.Pins" "1=K 2=A" (at 180.34 151.13 0)
      (effects (font (size 1.27 1.27)) hide)
    )
    (pin "1" (uuid b685fa9a-405c-43ba-a331-98801ac9b041))
    (pin "2" (uuid 27131eb3-985b-4749-a736-efed16317a31))
    (instances
      (project "Macro keyboard"
        (path "/3937f468-0b83-469a-a5fd-476bbbe0394c"
          (reference "D9") (unit 1)
        )
      )
    )
  )

  (symbol (lib_id "Diode:1N4148") (at 180.34 118.11 0) (unit 1)
    (in_bom yes) (on_board yes) (dnp no) (fields_autoplaced)
    (uuid 89914912-548d-4a3d-bf48-ed06fed4d368)
    (property "Reference" "D1" (at 180.34 111.76 0)
      (effects (font (size 1.27 1.27)))
    )
    (property "Value" "1N4148" (at 180.34 114.3 0)
      (effects (font (size 1.27 1.27)))
    )
    (property "Footprint" "Diode_THT:D_DO-35_SOD27_P7.62mm_Horizontal" (at 180.34 118.11 0)
      (effects (font (size 1.27 1.27)) hide)
    )
    (property "Datasheet" "https://assets.nexperia.com/documents/data-sheet/1N4148_1N4448.pdf" (at 180.34 118.11 0)
      (effects (font (size 1.27 1.27)) hide)
    )
    (property "Sim.Device" "D" (at 180.34 118.11 0)
      (effects (font (size 1.27 1.27)) hide)
    )
    (property "Sim.Pins" "1=K 2=A" (at 180.34 118.11 0)
      (effects (font (size 1.27 1.27)) hide)
    )
    (pin "1" (uuid 5c4ea7f6-9843-41f7-90b9-945671f56c18))
    (pin "2" (uuid 25679a21-4d1d-415a-9f21-012fde3e4eef))
    (instances
      (project "Macro keyboard"
        (path "/3937f468-0b83-469a-a5fd-476bbbe0394c"
          (reference "D1") (unit 1)
        )
      )
    )
  )

  (symbol (lib_id "Diode:1N4148") (at 203.2 151.13 0) (unit 1)
    (in_bom yes) (on_board yes) (dnp no) (fields_autoplaced)
    (uuid a17e8801-2b2a-46d3-84b7-f93c55163d0c)
    (property "Reference" "D10" (at 203.2 144.78 0)
      (effects (font (size 1.27 1.27)))
    )
    (property "Value" "1N4148" (at 203.2 147.32 0)
      (effects (font (size 1.27 1.27)))
    )
    (property "Footprint" "Diode_THT:D_DO-35_SOD27_P7.62mm_Horizontal" (at 203.2 151.13 0)
      (effects (font (size 1.27 1.27)) hide)
    )
    (property "Datasheet" "https://assets.nexperia.com/documents/data-sheet/1N4148_1N4448.pdf" (at 203.2 151.13 0)
      (effects (font (size 1.27 1.27)) hide)
    )
    (property "Sim.Device" "D" (at 203.2 151.13 0)
      (effects (font (size 1.27 1.27)) hide)
    )
    (property "Sim.Pins" "1=K 2=A" (at 203.2 151.13 0)
      (effects (font (size 1.27 1.27)) hide)
    )
    (pin "1" (uuid f12f8e47-6895-4860-9396-a732761efa08))
    (pin "2" (uuid 3fcc3069-fc56-44dc-b046-98aea042c080))
    (instances
      (project "Macro keyboard"
        (path "/3937f468-0b83-469a-a5fd-476bbbe0394c"
          (reference "D10") (unit 1)
        )
      )
    )
  )

  (symbol (lib_id "Switch:SW_Push") (at 185.42 128.27 270) (unit 1)
    (in_bom yes) (on_board yes) (dnp no) (fields_autoplaced)
    (uuid a3e09c9a-b5a5-4772-bf70-59f12154f4b9)
    (property "Reference" "SW5" (at 189.23 127 90)
      (effects (font (size 1.27 1.27)) (justify left))
    )
    (property "Value" "SW_Push" (at 189.23 129.54 90)
      (effects (font (size 1.27 1.27)) (justify left))
    )
    (property "Footprint" "Button_Switch_Keyboard:SW_Cherry_MX_1.00u_Plate" (at 190.5 128.27 0)
      (effects (font (size 1.27 1.27)) hide)
    )
    (property "Datasheet" "~" (at 190.5 128.27 0)
      (effects (font (size 1.27 1.27)) hide)
    )
    (pin "2" (uuid 61f28c5c-ab75-401a-948d-a663373d7587))
    (pin "1" (uuid cdd9ea87-79c1-4b77-bce8-806e771dc667))
    (instances
      (project "Macro keyboard"
        (path "/3937f468-0b83-469a-a5fd-476bbbe0394c"
          (reference "SW5") (unit 1)
        )
      )
    )
  )

  (symbol (lib_id "Diode:1N4148") (at 248.92 151.13 0) (unit 1)
    (in_bom yes) (on_board yes) (dnp no) (fields_autoplaced)
    (uuid c489c258-2844-48be-a521-fc0887a26ad4)
    (property "Reference" "D12" (at 248.92 144.78 0)
      (effects (font (size 1.27 1.27)))
    )
    (property "Value" "1N4148" (at 248.92 147.32 0)
      (effects (font (size 1.27 1.27)))
    )
    (property "Footprint" "Diode_THT:D_DO-35_SOD27_P7.62mm_Horizontal" (at 248.92 151.13 0)
      (effects (font (size 1.27 1.27)) hide)
    )
    (property "Datasheet" "https://assets.nexperia.com/documents/data-sheet/1N4148_1N4448.pdf" (at 248.92 151.13 0)
      (effects (font (size 1.27 1.27)) hide)
    )
    (property "Sim.Device" "D" (at 248.92 151.13 0)
      (effects (font (size 1.27 1.27)) hide)
    )
    (property "Sim.Pins" "1=K 2=A" (at 248.92 151.13 0)
      (effects (font (size 1.27 1.27)) hide)
    )
    (pin "1" (uuid 478a0e9c-c3dd-48be-8b5d-f2951d88da97))
    (pin "2" (uuid 502a4e51-7e09-4ad9-aaad-7012d909b4f8))
    (instances
      (project "Macro keyboard"
        (path "/3937f468-0b83-469a-a5fd-476bbbe0394c"
          (reference "D12") (unit 1)
        )
      )
    )
  )

  (symbol (lib_id "Switch:SW_Push") (at 185.42 111.76 270) (unit 1)
    (in_bom yes) (on_board yes) (dnp no) (fields_autoplaced)
    (uuid e31decc4-7907-4282-bb5d-fb7c83b1385e)
    (property "Reference" "SW1" (at 189.23 110.49 90)
      (effects (font (size 1.27 1.27)) (justify left))
    )
    (property "Value" "SW_Push" (at 189.23 113.03 90)
      (effects (font (size 1.27 1.27)) (justify left))
    )
    (property "Footprint" "Button_Switch_Keyboard:SW_Cherry_MX_1.00u_Plate" (at 190.5 111.76 0)
      (effects (font (size 1.27 1.27)) hide)
    )
    (property "Datasheet" "~" (at 190.5 111.76 0)
      (effects (font (size 1.27 1.27)) hide)
    )
    (pin "2" (uuid d89aff2a-8c47-470f-918c-01b6fa7bd14c))
    (pin "1" (uuid 887d8218-3220-40a0-baa5-a450a9263a62))
    (instances
      (project "Macro keyboard"
        (path "/3937f468-0b83-469a-a5fd-476bbbe0394c"
          (reference "SW1") (unit 1)
        )
      )
    )
  )

  (symbol (lib_id "Switch:SW_Push") (at 254 111.76 270) (unit 1)
    (in_bom yes) (on_board yes) (dnp no) (fields_autoplaced)
    (uuid ef1d8053-67fc-4055-841f-d497ebb9312d)
    (property "Reference" "SW4" (at 257.81 110.49 90)
      (effects (font (size 1.27 1.27)) (justify left))
    )
    (property "Value" "SW_Push" (at 257.81 113.03 90)
      (effects (font (size 1.27 1.27)) (justify left))
    )
    (property "Footprint" "Button_Switch_Keyboard:SW_Cherry_MX_1.00u_Plate" (at 259.08 111.76 0)
      (effects (font (size 1.27 1.27)) hide)
    )
    (property "Datasheet" "~" (at 259.08 111.76 0)
      (effects (font (size 1.27 1.27)) hide)
    )
    (pin "2" (uuid bc5bba4d-c5fa-46dd-aeb5-650f3c5f8edb))
    (pin "1" (uuid 19bd7496-c6f1-4443-b16a-bada1b5ac821))
    (instances
      (project "Macro keyboard"
        (path "/3937f468-0b83-469a-a5fd-476bbbe0394c"
          (reference "SW4") (unit 1)
        )
      )
    )
  )

  (symbol (lib_id "Switch:SW_Push") (at 208.28 128.27 270) (unit 1)
    (in_bom yes) (on_board yes) (dnp no) (fields_autoplaced)
    (uuid f378642c-8f0d-4f14-bb4d-232b50e8c987)
    (property "Reference" "SW6" (at 212.09 127 90)
      (effects (font (size 1.27 1.27)) (justify left))
    )
    (property "Value" "SW_Push" (at 212.09 129.54 90)
      (effects (font (size 1.27 1.27)) (justify left))
    )
    (property "Footprint" "Button_Switch_Keyboard:SW_Cherry_MX_1.00u_Plate" (at 213.36 128.27 0)
      (effects (font (size 1.27 1.27)) hide)
    )
    (property "Datasheet" "~" (at 213.36 128.27 0)
      (effects (font (size 1.27 1.27)) hide)
    )
    (pin "2" (uuid 27d2ffd6-604f-4ac1-90cd-f18d29471daf))
    (pin "1" (uuid 2e781a0b-8a08-45e0-983c-231d35981595))
    (instances
      (project "Macro keyboard"
        (path "/3937f468-0b83-469a-a5fd-476bbbe0394c"
          (reference "SW6") (unit 1)
        )
      )
    )
  )

  (symbol (lib_id "Diode:1N4148") (at 226.06 118.11 0) (unit 1)
    (in_bom yes) (on_board yes) (dnp no) (fields_autoplaced)
    (uuid f876723d-e70d-469c-9cc4-9dd2abbfedf8)
    (property "Reference" "D3" (at 226.06 111.76 0)
      (effects (font (size 1.27 1.27)))
    )
    (property "Value" "1N4148" (at 226.06 114.3 0)
      (effects (font (size 1.27 1.27)))
    )
    (property "Footprint" "Diode_THT:D_DO-35_SOD27_P7.62mm_Horizontal" (at 226.06 118.11 0)
      (effects (font (size 1.27 1.27)) hide)
    )
    (property "Datasheet" "https://assets.nexperia.com/documents/data-sheet/1N4148_1N4448.pdf" (at 226.06 118.11 0)
      (effects (font (size 1.27 1.27)) hide)
    )
    (property "Sim.Device" "D" (at 226.06 118.11 0)
      (effects (font (size 1.27 1.27)) hide)
    )
    (property "Sim.Pins" "1=K 2=A" (at 226.06 118.11 0)
      (effects (font (size 1.27 1.27)) hide)
    )
    (pin "1" (uuid 2925fc50-042a-440d-be29-c806941653f1))
    (pin "2" (uuid ea12eedf-a1bf-471b-a397-cec6fad28264))
    (instances
      (project "Macro keyboard"
        (path "/3937f468-0b83-469a-a5fd-476bbbe0394c"
          (reference "D3") (unit 1)
        )
      )
    )
  )

  (symbol (lib_id "Diode:1N4148") (at 226.06 151.13 0) (unit 1)
    (in_bom yes) (on_board yes) (dnp no) (fields_autoplaced)
    (uuid fa62ae20-3e45-46ed-8dbf-cd4d41277d82)
    (property "Reference" "D11" (at 226.06 144.78 0)
      (effects (font (size 1.27 1.27)))
    )
    (property "Value" "1N4148" (at 226.06 147.32 0)
      (effects (font (size 1.27 1.27)))
    )
    (property "Footprint" "Diode_THT:D_DO-35_SOD27_P7.62mm_Horizontal" (at 226.06 151.13 0)
      (effects (font (size 1.27 1.27)) hide)
    )
    (property "Datasheet" "https://assets.nexperia.com/documents/data-sheet/1N4148_1N4448.pdf" (at 226.06 151.13 0)
      (effects (font (size 1.27 1.27)) hide)
    )
    (property "Sim.Device" "D" (at 226.06 151.13 0)
      (effects (font (size 1.27 1.27)) hide)
    )
    (property "Sim.Pins" "1=K 2=A" (at 226.06 151.13 0)
      (effects (font (size 1.27 1.27)) hide)
    )
    (pin "1" (uuid 3b6c822d-4244-468b-ba83-7ce3acec3e9c))
    (pin "2" (uuid e119c815-1026-4800-a05d-d43e9192c520))
    (instances
      (project "Macro keyboard"
        (path "/3937f468-0b83-469a-a5fd-476bbbe0394c"
          (reference "D11") (unit 1)
        )
      )
    )
  )

  (sheet_instances
    (path "/" (page "1"))
  )
)
